…
penguins_preds <-
  penguins_wf %>%
  predict_boots(
    n = 100,
    training_data = penguins_train,
    new_data = penguins_test
  )

penguins_preds %>%
  summarise_predictions()
```

    ## # A tibble: 84 x 5
    ##    rowid .preds             .pred_lower .pred .pred_upper
    ##    <int> <list>                   <dbl> <dbl>       <dbl>
    ##  1     1 <tibble [100 x 2]>       3308. 3456.       3596.
    ##  2     2 <tibble [100 x 2]>       3334. 3535.       3778.
    ##  3     3 <tibble [100 x 2]>       3307. 3596.       3822.
    ##  4     4 <tibble [100 x 2]>       3781. 4139.       4499.
    ##  5     5 <tibble [100 x 2]>       3638. 3854.       4082.
    ##  6     6 <tibble [100 x 2]>       3300. 3493.       3762.
    ##  7     7 <tibble [100 x 2]>       3276. 3432.       3570.
    ##  8     8 <tibble [100 x 2]>       3758. 4036.       4358.
    ##  9     9 <tibble [100 x 2]>       3276. 3452.       3614.
    ## 10    10 <tibble [100 x 2]>       3254. 3407.       3648.
    ## # ... with 74 more rows
…
