Getting Started with workboots • workboots
…
Predicting price ranges with a tuned workflow.

Estimating variable importance ranges with a tuned workflow.

Building a baseline model

What’s included in the car_prices dataset?

library(tidymodels)

# setup data 
data("car_prices")
car_prices 
#> # A tibble: 804 × 18
#>     Price Mileage Cylinder Doors Cruise Sound Leather Buick Cadillac Chevy
#>     <dbl>   <int>    <int> <int>  <int> <int>   <int> <int>    <int> <int>
#>  1 22661.   20105        6     4      1     0       0     1        0     0
#>  2 21725.   13457        6     2      1     1       0     0        0     1
#>  3 29143.   31655        4     2      1     1       1     0        0     0
#>  4 30732.   22479        4     2      1     0       0     0        0     0
#>  5 33359.   17590        4     2      1     1       1     0        0     0
#>  6 30315.   23635        4     2      1     0       0     0        0     0
#>  7 33382.   17381        4     2      1     1       1     0        0     0
#>  8 30251.   27558        4     2      1     0       1     0        0     0
#>  9 30167.   25049        4     2      1     0       0     0        0     0
#> 10 27060.   17319        4     4      1     0       1     0        0     0
#> # … with 794 more rows, and 8 more variables: Pontiac <int>, Saab <int>,
#> #   Saturn <int>, convertible <int>, coupe <int>, hatchback <int>, sedan <int>,
#> #   wagon <int>
…
set.seed(444)
car_preds <-
  car_wf_final %>%
  predict_boots(
    n = 2000,
    training_data = car_train,
    new_data = car_test
  )

We can summarize the predictions with upper and lower bounds of a prediction interval by passing car_preds to summarise_predictions().

car_preds %>%
  summarise_predictions()
#> # A tibble: 201 × 5
#>    rowid .preds               .pred .pred_lower .pred_upper
#>    <int> <list>               <dbl>       <dbl>       <dbl>
#>  1     1 <tibble [2,000 × 2]>  4.30        4.22        4.38
#>  2     2 <tibble [2,000 × 2]>  4.48        4.41        4.55
#>  3     3 <tibble [2,000 × 2]>  4.51        4.44        4.58
#>  4     4 <tibble [2,000 × 2]>  4.44        4.37        4.51
#>  5     5 <tibble [2,000 × 2]>  4.46        4.38        4.53
#>  6     6 <tibble [2,000 × 2]>  4.50        4.41        4.57
#>  7     7 <tibble [2,000 × 2]>  4.52        4.44        4.59
#>  8     8 <tibble [2,000 × 2]>  4.52        4.45        4.59
#>  9     9 <tibble [2,000 × 2]>  4.46        4.38        4.53
#> 10    10 <tibble [2,000 × 2]>  4.46        4.38        4.53
#> # … with 191 more rows
…
